{
    "Clan Logo": 1,
    "Dash Color": 0,
    "Headlight Color": 255,
    "Interior Color": 70,
    "MOD_ARMOR": [
        4,
        0
    ],
    "MOD_BRAKES": [
        2,
        0
    ],
    "MOD_ENGINE": [
        3,
        0
    ],
    "MOD_EXHAUST": [
        0,
        0
    ],
    "MOD_FRONTBUMPER": [
        0,
        0
    ],
    "MOD_FRONTWHEEL": [
        0,
        0
    ],
    "MOD_GRILLE": [
        4,
        0
    ],
    "MOD_HOOD": [
        3,
        0
    ],
    "MOD_HORNS": [
        8,
        0
    ],
    "MOD_LIVERY": [
        2,
        0
    ],
    "MOD_REARBUMPER": [
        3,
        0
    ],
    "MOD_ROOF": [
        0,
        0
    ],
    "MOD_SPOILERS": [
        0,
        0
    ],
    "MOD_SUSPENSION": [
        4,
        0
    ],
    "MOD_TRANSMISSION": [
        3,
        0
    ],
    "MOD_TURBO": "TOGGLE",
    "Model Attachments": [],
    "Neon Color": [
        0,
        0,
        0
    ],
    "Neon Lights": [
        false,
        false,
        false,
        false
    ],
    "Pearlescent Color": 0,
    "Plate Text": " 2FAST  ",
    "Plate Text Index": 1,
    "Primary Color": 70,
    "Radio Station": "RADIO_16_SILVERLAKE",
    "Secondary Color": 111,
    "Vehicle Attachments": [],
    "Vehicle Extras": [
        [
            1,
            true
        ],
        [
            2,
            false
        ]
    ],
    "Vehicle Model Hash": 1279262537,
    "Vehicle Window Tint": 0,
    "Wheel Color": 70,
    "Wheel Type": 1
}