{
    "Clan Logo": 1,
    "Dash Color": 0,
    "Headlight Color": 255,
    "Interior Color": 70,
    "MOD_ARMOR": [
        4,
        0
    ],
    "MOD_BRAKES": [
        2,
        0
    ],
    "MOD_ENGINE": [
        3,
        0
    ],
    "MOD_EXHAUST": [
        2,
        0
    ],
    "MOD_FRONTWHEEL": [
        7,
        0
    ],
    "MOD_HOOD": [
        1,
        0
    ],
    "MOD_HORNS": [
        8,
        0
    ],
    "MOD_LIVERY": [
        1,
        0
    ],
    "MOD_SIDESKIRT": [
        0,
        0
    ],
    "MOD_SPOILERS": [
        2,
        0
    ],
    "MOD_TRANSMISSION": [
        3,
        0
    ],
    "MOD_TURBO": "TOGGLE",
    "Model Attachments": [],
    "Neon Color": [
        0,
        0,
        0
    ],
    "Neon Lights": [
        false,
        false,
        false,
        false
    ],
    "Pearlescent Color": 0,
    "Plate Text": " 2FAST  ",
    "Plate Text Index": 1,
    "Primary Color": 70,
    "Radio Station": "RADIO_19_USER",
    "Secondary Color": 111,
    "Tire Smoke Color": [
        20,
        20,
        20
    ],
    "Vehicle Attachments": [],
    "Vehicle Extras": [
        [
            1,
            true
        ]
    ],
    "Vehicle Model Hash": 3630826055,
    "Vehicle Window Tint": 0,
    "Wheel Color": 70,
    "Wheel Type": 0
}