{
    "Clan Logo": 1,
    "Dash Color": 0,
    "Headlight Color": 255,
    "Interior Color": 0,
    "MOD_ARMOR": [
        4,
        0
    ],
    "MOD_BRAKES": [
        2,
        0
    ],
    "MOD_ENGINE": [
        3,
        0
    ],
    "MOD_EXHAUST": [
        0,
        0
    ],
    "MOD_FRONTWHEEL": [
        7,
        0
    ],
    "MOD_SPOILERS": [
        1,
        0
    ],
    "MOD_SUSPENSION": [
        3,
        0
    ],
    "MOD_TRANSMISSION": [
        2,
        0
    ],
    "MOD_TURBO": "TOGGLE",
    "MOD_XENONHEADLIGHTS": "TOGGLE",
    "Model Attachments": [],
    "Neon Color": [
        255,
        0,
        255
    ],
    "Neon Lights": [
        false,
        false,
        false,
        false
    ],
    "Pearlescent Color": 0,
    "Plate Text": " 2FAST  ",
    "Plate Text Index": 2,
    "Primary Color": 70,
    "Radio Station": "RADIO_22_DLC_BATTLE_MIX1_RADIO",
    "Secondary Color": 111,
    "Tire Smoke Color": [
        20,
        20,
        20
    ],
    "Vehicle Attachments": [],
    "Vehicle Extras": [
        [
            2,
            true
        ],
        [
            3,
            false
        ],
        [
            7,
            true
        ],
        [
            10,
            true
        ],
        [
            11,
            true
        ]
    ],
    "Vehicle Model Hash": 4067225593,
    "Vehicle Window Tint": 0,
    "Wheel Color": 70,
    "Wheel Type": 0
}