{
    "Collection Vector": [
        598190139
    ],
    "Component Drawable Variation": [
        0,
        139,
        37,
        164,
        108,
        0,
        33,
        0,
        15,
        0,
        0,
        277
    ],
    "Component Texture Variation": [
        0,
        0,
        0,
        0,
        0,
        0,
        0,
        0,
        0,
        0,
        0,
        0
    ],
    "Model": 1885233650,
    "Overlay Vector": [
        739308497
    ],
    "Ped Data": {
        "eye_color": 1,
        "face_feature_scale": [
            0.0,
            0.0,
            0.0,
            0.0,
            0.0,
            0.0,
            0.0,
            0.0,
            0.0,
            0.0,
            0.0,
            0.0,
            0.0,
            0.0,
            0.0,
            0.0,
            0.0,
            0.0,
            0.0,
            0.0
        ],
        "first_face_shape": 0,
        "first_skin_tone": 31,
        "hair_color": 4,
        "hair_highlight": 6,
        "is_parent_inheritance": 1,
        "overlay": [
            -1,
            -1,
            0,
            -1,
            -1,
            -1,
            -1,
            -1,
            -1,
            -1,
            0,
            -1,
            -1
        ],
        "overlay_color_id": [
            0,
            4,
            4,
            0,
            0,
            0,
            0,
            0,
            0,
            0,
            0,
            0,
            0
        ],
        "overlay_color_type": [
            0,
            1,
            1,
            0,
            0,
            0,
            0,
            0,
            2,
            0,
            1,
            0,
            0
        ],
        "overlay_opacity": [
            1.0,
            1.0,
            1.0,
            1.0,
            0.5,
            0.0,
            1.0,
            1.0,
            0.5,
            1.0,
            1.0,
            1.0,
            1.0
        ],
        "overlay_second_color_id": [
            0,
            4,
            4,
            0,
            0,
            0,
            0,
            0,
            0,
            0,
            0,
            0,
            0
        ],
        "parent_face_shape_percent": 0.0,
        "parent_skin_tone_percent": 1.0,
        "parent_third_unk_percent": 0.0,
        "second_face_shape": 0,
        "second_skin_tone": 44,
        "third_face_shape": 0,
        "third_skin_tone": 0
    },
    "Ped Prop Index": [
        -1,
        -1,
        -1,
        -1,
        -1,
        -1,
        -1,
        -1,
        -1,
        -1,
        -1,
        -1
    ],
    "Ped Prop Texture Index": [
        -1,
        -1,
        -1,
        -1,
        -1,
        -1,
        -1,
        -1,
        -1,
        -1,
        -1,
        -1
    ]
}